NFL Redzone EPA Reverse Engineering - Jetson's Sports Data Blog
…
They’ve actually improved. Interesting. Let’s compare them to the rest of our teams and try and generalize this theory. We’re making two dataframes with EPAs and play counts for all teams through 3 weeks and through 8 weeks.

all_startrz <- pbp %>% filter(yardline_100 < 20, week < 4) %>% filter(!play_type %in% c('extra_point', 'no_play', 'qb_kneel'))
all_startrz <- all_startrz %>% group_by(posteam) %>% summarise(start_total_plays = n(), start_total_epa = sum(epa))
all_restrz <- pbp %>% filter(yardline_100 < 20) %>% filter(!play_type %in% c('extra_point', 'no_play', 'qb_kneel'))
all_restrz <- all_restrz %>% group_by(posteam) %>% summarise(overall_total_plays = n(), overall_total_epa = sum(epa))

To compare them, we’re joining these two dataframes and plotting them up.

comp <- left_join(all_startrz, all_restrz, by = "posteam")
comp

## # A tibble: 32 × 5
##    posteam start_total_plays start_total_epa overall_total_plays overall_total…¹
##    <chr>               <int>           <dbl>               <int>           <dbl>
##  1 ARI                    37          -1.11                   95         -3.35  
##  2 ATL                    34           3.02                   82         12.4   
##  3 BAL                    29           9.33                   91          5.57  
##  4 BUF                    38           8.41                   73         -0.701 
##  5 CAR                    22          -0.828                  53         -0.0861
##  6 CHI                    19           4.30                   78         -8.21  
##  7 CIN                    39          -6.36                   84          3.58  
##  8 CLE                    43           7.72                   96          9.81  
##  9 DAL                    17           1.83                   57         10.7   
## 10 DEN                    29         -16.4                    65        -29.0   
## # … with 22 more rows, and abbreviated variable name ¹​overall_total_epa
…
