Volleyball Waffle Chart - Jetson's Sports Data Blog
…
Let’s take a look.

logs

## # A tibble: 6,077 × 36
##    date       team     oppon…¹ home_…² result team_…³ oppon…⁴     s kills errors
##    <date>     <chr>    <chr>   <chr>   <lgl>    <dbl>   <dbl> <dbl> <dbl>  <dbl>
##  1 2022-08-26 A&M-Cor… Nebras… Away    NA           0       3     3    20     22
##  2 2022-08-26 A&M-Cor… Pepper… Away    NA           0       3     3    36     21
##  3 2022-08-27 A&M-Cor… Tulsa   Away    NA           2       3     5    75     22
##  4 2022-08-30 A&M-Cor… UTRGV   Away    NA           2       3     5    78     24
##  5 2022-09-02 A&M-Cor… Sam Ho… Home    NA           0       3     3    41     22
##  6 2022-09-03 A&M-Cor… SMU     Home    NA           0       3     3    41     18
##  7 2022-09-03 A&M-Cor… Indiana Home    NA           0       3     3    25     17
##  8 2022-09-06 A&M-Cor… UTRGV   Home    NA           0       3     3    34     22
##  9 2022-09-09 A&M-Cor… Texas … Away    NA           0       3     3    33     20
## 10 2022-09-10 A&M-Cor… Rice    Away    NA           0       3     3    36     21
## # … with 6,067 more rows, 26 more variables: total_attacks <dbl>,
## #   hit_pct <dbl>, assists <dbl>, aces <dbl>, s_err <dbl>, digs <dbl>,
## #   r_err <dbl>, block_solos <dbl>, block_assists <dbl>, b_err <dbl>,
## #   pts <dbl>, bhe <dbl>, defensive_kills <dbl>, defensive_errors <dbl>,
## #   defensive_total_attacks <dbl>, defensive_hit_pct <dbl>,
## #   defensive_assists <dbl>, defensive_aces <dbl>, defensive_s_err <dbl>,
## #   defensive_digs <dbl>, defensive_r_err <dbl>, defensive_block_solos <dbl>, …

We want to group these game logs by team and then summarize them by adding up each game’s blocks, kills, and aces. We use a special formula to calculate points scored from blocks. We’ll store this in a new dataframe called totals.

totals <- logs %>% group_by(team) %>% 
  summarize(total_kills = sum(kills), total_blocks = sum(block_solos) + (round(sum(block_assists)/2)), total_aces = sum(aces))
totals

## # A tibble: 345 × 4
##    team                         total_kills total_blocks total_aces
##    <chr>                              <dbl>        <dbl>      <dbl>
##  1 A&M-Corpus Christi Islanders         991          111         96
##  2 Abilene Christian Wildcats           804           93         93
##  3 Air Force Falcons                    871          175        120
##  4 Akron Zips                           797          111         77
##  5 Alabama A&M Bulldogs                 646          108         89
##  6 Alabama Crimson Tide                 879          147        138
##  7 Alabama St. Lady Hornets             831          128        130
##  8 Alcorn Lady Braves                   480           80         66
##  9 American Eagles                      910          159        115
## 10 App State Mountaineers               818          151        108
## # … with 335 more rows
…
