CFB Recruiting Ratings & Wins - Jetson's Sports Data Blog
…
## Rows: 400 Columns: 3
## ── Column specification ────────────────────────────────────────────────────────
## Delimiter: ","
## chr (1): team
## dbl (2): rating, year
## 
## ℹ Use `spec()` to retrieve the full column specification for this data.
## ℹ Specify the column types or set `show_col_types = FALSE` to quiet this message.

I join the records and rating dataframes on the team and year columns so that we can plot each year’s recruiting rankings with their win total from that year. To do this we left join on the records dataframe since it has more rows. Let’s sort by descending year and make sure we have the teams we expect at the top.

records_ratings <- left_join(records, ratings, by=c('team','year'))
records_ratings %>% arrange(desc(rating))

## # A tibble: 904 × 22
##     year team    confe…¹ divis…² expec…³ total…⁴ total…⁵ total…⁶ total…⁷ confe…⁸
##    <dbl> <chr>   <chr>   <chr>     <dbl>   <dbl>   <dbl>   <dbl>   <dbl>   <dbl>
##  1  2021 Alabama SEC     West       11        15      13       2       0       9
##  2  2017 Alabama SEC     West       12.8      14      13       1       0       9
##  3  2018 Georgia SEC     East       11.6      14      11       3       0       9
##  4  2021 Ohio S… Big Ten East        9.9      13      11       2       0       9
##  5  2019 Alabama SEC     West       11.4      13      11       2       0       8
##  6  2018 Ohio S… Big Ten East       10.3      14      13       1       0      10
##  7  2020 Georgia SEC     East        7.5      10       8       2       0       9
##  8  2017 Ohio S… Big Ten East       11.5      14      12       2       0      10
##  9  2015 Alabama SEC     West       12.5      15      14       1       0       9
## 10  2015 USC     Pac-12  South       8.3      14       8       6       0      10
## # … with 894 more rows, 12 more variables: conference_wins <dbl>,
## #   conference_losses <dbl>, conference_ties <dbl>, home_games <dbl>,
## #   home_wins <dbl>, home_losses <dbl>, home_ties <dbl>, away_games <dbl>,
## #   away_wins <dbl>, away_losses <dbl>, away_ties <dbl>, rating <dbl>, and
## #   abbreviated variable names ¹​conference, ²​division, ³​expected_wins,
## #   ⁴​total_games, ⁵​total_wins, ⁶​total_losses, ⁷​total_ties, ⁸​conference_games
…
This is telling us that Maryland has underperformed its recruiting classes rankings by the model’s standards. This data does include the COVID data, which makes it unfair to compare some of the wins totals. What if we look at winning percentage?

cov_adj <- records_ratings %>% mutate(win_pct = total_wins/total_games)
cov_adj

## # A tibble: 904 × 23
##     year team    confe…¹ divis…² expec…³ total…⁴ total…⁵ total…⁶ total…⁷ confe…⁸
##    <dbl> <chr>   <chr>   <chr>     <dbl>   <dbl>   <dbl>   <dbl>   <dbl>   <dbl>
##  1  2021 Air Fo… Mounta… Mounta…     9.1      13      10       3       0       8
##  2  2021 Akron   Mid-Am… East        1.9      12       2      10       0       8
##  3  2021 Alabama SEC     West       11        15      13       2       0       9
##  4  2021 Appala… Sun Be… West       11.3      14      10       4       0       9
##  5  2021 Arizona Pac-12  South       1.9      12       1      11       0       9
##  6  2021 Arizon… Pac-12  South       9.2      13       8       5       0       9
##  7  2021 Arkans… SEC     West        9.2      13       9       4       0       8
##  8  2021 Arkans… Sun Be… East        2.9      12       2      10       0       8
##  9  2021 Army    FBS In… <NA>       10        13       9       4       0       0
## 10  2021 Auburn  SEC     West        6.3      13       6       7       0       8
## # … with 894 more rows, 13 more variables: conference_wins <dbl>,
## #   conference_losses <dbl>, conference_ties <dbl>, home_games <dbl>,
## #   home_wins <dbl>, home_losses <dbl>, home_ties <dbl>, away_games <dbl>,
## #   away_wins <dbl>, away_losses <dbl>, away_ties <dbl>, rating <dbl>,
## #   win_pct <dbl>, and abbreviated variable names ¹​conference, ²​division,
## #   ³​expected_wins, ⁴​total_games, ⁵​total_wins, ⁶​total_losses, ⁷​total_ties,
## #   ⁸​conference_games
…
Our r-squared is not that big. The p-value is low, but this relationship isn’t very robust in terms of being able to predict win percentages.

The plot looks a bit different. Let’s look at the results when we analyze a class and its impact three years on. For this, we’ll add three years to the recruiting class year to get an impact year - the year when they are expected to be most impactful to the team.

impact_ratings <- ratings %>% mutate(impact_year = year + 3)
records <- records %>% mutate(impact_year = year)
impact_record_ratings <- left_join(records, impact_ratings, by=c('team','impact_year'))

cov_adj <- impact_record_ratings %>% mutate(win_pct = total_wins/total_games)
cov_adj

## # A tibble: 904 × 25
##    year.x team   confe…¹ divis…² expec…³ total…⁴ total…⁵ total…⁶ total…⁷ confe…⁸
##     <dbl> <chr>  <chr>   <chr>     <dbl>   <dbl>   <dbl>   <dbl>   <dbl>   <dbl>
##  1   2021 Air F… Mounta… Mounta…     9.1      13      10       3       0       8
##  2   2021 Akron  Mid-Am… East        1.9      12       2      10       0       8
##  3   2021 Alaba… SEC     West       11        15      13       2       0       9
##  4   2021 Appal… Sun Be… West       11.3      14      10       4       0       9
##  5   2021 Arizo… Pac-12  South       1.9      12       1      11       0       9
##  6   2021 Arizo… Pac-12  South       9.2      13       8       5       0       9
##  7   2021 Arkan… SEC     West        9.2      13       9       4       0       8
##  8   2021 Arkan… Sun Be… East        2.9      12       2      10       0       8
##  9   2021 Army   FBS In… <NA>       10        13       9       4       0       0
## 10   2021 Auburn SEC     West        6.3      13       6       7       0       8
## # … with 894 more rows, 15 more variables: conference_wins <dbl>,
## #   conference_losses <dbl>, conference_ties <dbl>, home_games <dbl>,
## #   home_wins <dbl>, home_losses <dbl>, home_ties <dbl>, away_games <dbl>,
## #   away_wins <dbl>, away_losses <dbl>, away_ties <dbl>, impact_year <dbl>,
## #   rating <dbl>, year.y <dbl>, win_pct <dbl>, and abbreviated variable names
## #   ¹​conference, ²​division, ³​expected_wins, ⁴​total_games, ⁵​total_wins,
## #   ⁶​total_losses, ⁷​total_ties, ⁸​conference_games
…
