First Play Interceptions - Jetson's Sports Data Blog
…
  pbp <- cfbfastR::load_cfb_pbp(seasons)
})
tictoc::toc()

## 106.28 sec elapsed

To find first plays from scrimmage, we’re going to define them as plays where the previous play was a kickoff, it’s the first drive, and there are more than 13 minutes on the clock. Hopefully this eliminates as many inconsistencies in the data as possible.

first_plays <- pbp %>% filter(lag_kickoff_play == 1, drive_number == 1, clock.minutes > 13)
first_plays

## ────────────────────────────────────────────────────────────── cfbfastR 1.9.0 ──

## # A tibble: 7,107 × 331
##     year  week id_play   game_id game_…¹ half_…² drive…³ pos_t…⁴ def_p…⁵ pos_t…⁶
##    <dbl> <int>   <dbl>     <int>   <dbl>   <dbl>   <dbl> <chr>   <chr>     <int>
##  1  2014     1 4.01e17 400547640       1       1       1 Temple  Vander…       0
##  2  2014     1 4.01e17 400547641       2       2       2 BYU     Connec…       0
##  3  2014     1 4.01e17 400547642       2       2       2 UCF     Penn S…       0
##  4  2014     1 4.01e17 400547643       2       2       2 East C… North …       0
##  5  2014     1 4.01e17 400547644       2       2       2 Houston UT San…       0
##  6  2014     1 4.01e17 400547645       2       2       2 Memphis Austin…       0
##  7  2014     1 4.01e17 400547647       2       2       2 Tulane  Tulsa         0
##  8  2014     1 4.01e17 400547648       2       2       2 SMU     Baylor        0
##  9  2014     1 4.01e17 400547740       2       2       2 Clemson Georgia       0
## 10  2014     1 4.01e17 400547762       2       2       2 Oklaho… Florid…       0
## # … with 7,097 more rows, 321 more variables: def_pos_team_score <int>,
## #   half <dbl>, period <int>, clock.minutes <int>, clock.seconds <int>,
## #   play_type <chr>, play_text <chr>, down <dbl>, distance <dbl>,
## #   yards_to_goal <dbl>, yards_gained <dbl>, EPA <dbl>, ep_before <dbl>,
## #   ep_after <dbl>, wpa <dbl>, wp_before <dbl>, wp_after <dbl>,
## #   def_wp_before <dbl>, def_wp_after <dbl>, penalty_detail <chr>,
## #   yds_penalty <dbl>, penalty_1st_conv <lgl>, new_series <dbl>, …
…
Now we want the interceptions.

int <- pass_plays %>% filter(grepl("Interception", play_type, fixed=TRUE))
int

## ────────────────────────────────────────────────────────────── cfbfastR 1.9.0 ──

## # A tibble: 46 × 331
##     year  week id_play   game_id game_…¹ half_…² drive…³ pos_t…⁴ def_p…⁵ pos_t…⁶
##    <dbl> <int>   <dbl>     <int>   <dbl>   <dbl>   <dbl> <chr>   <chr>     <int>
##  1  2014     4 4.01e17 400548196       2       2       2 Colora… Hawai'i       0
##  2  2014     5 4.01e17 400548036       2       2       2 Old Do… Middle…       0
##  3  2014     8 4.01e17 400547931       2       2       2 Maryla… Iowa          0
##  4  2014     8 4.01e17 400547964       2       2       2 Purdue  Minnes…       0
##  5  2014    10 4.01e17 400547700       2       2       2 Cincin… Tulane        0
##  6  2014    11 4.01e17 400547737       2       2       2 Boston… Louisv…       0
##  7  2015     1 4.01e17 400603829       2       2       2 Louisv… Auburn        0
##  8  2015     1 4.01e17 400763498       2       2       2 Purdue  Marsha…       0
##  9  2015     1 4.01e17 400852728       2       2       2 NC Sta… Missis…       0
## 10  2015     2 4.01e17 400763499       2       2       2 Colora… Minnes…       0
## # … with 36 more rows, 321 more variables: def_pos_team_score <int>,
## #   half <dbl>, period <int>, clock.minutes <int>, clock.seconds <int>,
## #   play_type <chr>, play_text <chr>, down <dbl>, distance <dbl>,
## #   yards_to_goal <dbl>, yards_gained <dbl>, EPA <dbl>, ep_before <dbl>,
## #   ep_after <dbl>, wpa <dbl>, wp_before <dbl>, wp_after <dbl>,
## #   def_wp_before <dbl>, def_wp_after <dbl>, penalty_detail <chr>,
## #   yds_penalty <dbl>, penalty_1st_conv <lgl>, new_series <dbl>, …
…
