Volleyball Aces - Jetson's Sports Data Blog
…
We have data from the 2022 volleyball season so far, so we’re going to filter this data down and make a visualization. First, were only looking at players who have played in more than 20 games this season. They also need to have a position in our data so that we can compare positional data.

qualified <- twentytwo %>% filter(gp >= 20) %>% filter(!is.na(aces), !is.na(pos))
qualified

## # A tibble: 2,057 × 32
##    team   season jersey full_…¹ roste…² last_…³ first…⁴ yr    pos    feet inches
##    <chr>   <dbl>  <dbl> <chr>   <chr>   <chr>   <chr>   <chr> <chr> <dbl>  <dbl>
##  1 A&M-C…   2022     23 Zoria … Heard,… Heard   Zoria   Fr    L         5      6
##  2 A&M-C…   2022     12 Halle … Gibson… Gibson  Halle   Fr    S         5      9
##  3 A&M-C…   2022     33 Tayah … Little… Little  Tayah   Fr    MB        5      9
##  4 A&M-C…   2022      9 Kyndal… Payne,… Payne   Kyndal  So    OH        5     11
##  5 A&M-C…   2022      7 Leah S… Stolfu… Stolfus Leah    So    MB        6      0
##  6 A&M-C…   2022      5 Cariss… Barnes… Barnes  Carissa Sr    L         5      7
##  7 A&M-C…   2022     16 Ella L… Litter… Litter… Ella    Jr    OH        6      2
##  8 A&M-C…   2022      8 McKenn… Reiswi… Reiswig McKenna Jr    RS        6      4
##  9 A&M-C…   2022     15 Morgan… Baese,… Baese   Morgan  So    OPP       6      3
## 10 A&M-C…   2022      6 Faith … Panhan… Panhans Faith   Sr    S         5     11
## # … with 2,047 more rows, 21 more variables: gp <dbl>, gs <dbl>, mp <dbl>,
## #   s <dbl>, ms <lgl>, kills <dbl>, errors <dbl>, total_attacks <dbl>,
## #   hit_pct <dbl>, assists <dbl>, aces <dbl>, s_err <dbl>, digs <dbl>,
## #   r_err <dbl>, block_solos <dbl>, block_assists <dbl>, b_err <dbl>,
## #   total_blocks <lgl>, pts <dbl>, bhe <dbl>, trpl_dbl <dbl>, and abbreviated
## #   variable names ¹​full_name, ²​roster_name, ³​last_name, ⁴​first_name

We’re also only going to look at the top 25% in the country in aces/match. The idea is we are looking at those who play a lot and serve well.

qualified <- qualified %>% mutate(acespermatch = aces/gp)
qualified

## # A tibble: 2,057 × 33
##    team   season jersey full_…¹ roste…² last_…³ first…⁴ yr    pos    feet inches
##    <chr>   <dbl>  <dbl> <chr>   <chr>   <chr>   <chr>   <chr> <chr> <dbl>  <dbl>
##  1 A&M-C…   2022     23 Zoria … Heard,… Heard   Zoria   Fr    L         5      6
##  2 A&M-C…   2022     12 Halle … Gibson… Gibson  Halle   Fr    S         5      9
##  3 A&M-C…   2022     33 Tayah … Little… Little  Tayah   Fr    MB        5      9
##  4 A&M-C…   2022      9 Kyndal… Payne,… Payne   Kyndal  So    OH        5     11
##  5 A&M-C…   2022      7 Leah S… Stolfu… Stolfus Leah    So    MB        6      0
##  6 A&M-C…   2022      5 Cariss… Barnes… Barnes  Carissa Sr    L         5      7
##  7 A&M-C…   2022     16 Ella L… Litter… Litter… Ella    Jr    OH        6      2
##  8 A&M-C…   2022      8 McKenn… Reiswi… Reiswig McKenna Jr    RS        6      4
##  9 A&M-C…   2022     15 Morgan… Baese,… Baese   Morgan  So    OPP       6      3
## 10 A&M-C…   2022      6 Faith … Panhan… Panhans Faith   Sr    S         5     11
## # … with 2,047 more rows, 22 more variables: gp <dbl>, gs <dbl>, mp <dbl>,
## #   s <dbl>, ms <lgl>, kills <dbl>, errors <dbl>, total_attacks <dbl>,
## #   hit_pct <dbl>, assists <dbl>, aces <dbl>, s_err <dbl>, digs <dbl>,
## #   r_err <dbl>, block_solos <dbl>, block_assists <dbl>, b_err <dbl>,
## #   total_blocks <lgl>, pts <dbl>, bhe <dbl>, trpl_dbl <dbl>,
## #   acespermatch <dbl>, and abbreviated variable names ¹​full_name,
## #   ²​roster_name, ³​last_name, ⁴​first_name
…
