Big Ten CFB Avg Plays - Jetson's Sports Data Blog
…
## Rows: 1655 Columns: 54
## ── Column specification ────────────────────────────────────────────────────────
## Delimiter: ","
## chr   (8): HomeAway, Opponent, Result, TeamFull, TeamURL, Outcome, Team, Con...
## dbl  (45): Game, PassingCmp, PassingAtt, PassingPct, PassingYds, PassingTD, ...
## date  (1): Date
## 
## ℹ Use `spec()` to retrieve the full column specification for this data.
## ℹ Specify the column types or set `show_col_types = FALSE` to quiet this message.

If we just take a quick look around our data, we can find some starting to points to help us manipulate this data.

fblogs

## # A tibble: 1,655 × 54
##     Game Date       HomeAway Opponent     Result Passi…¹ Passi…² Passi…³ Passi…⁴
##    <dbl> <date>     <chr>    <chr>        <chr>    <dbl>   <dbl>   <dbl>   <dbl>
##  1     1 2021-09-04 <NA>     Western Mic… W (47…      13      17    76.5     216
##  2     2 2021-09-11 <NA>     Washington   W (31…       7      15    46.7      44
##  3     3 2021-09-18 <NA>     Northern Il… W (63…      12      17    70.6     233
##  4     4 2021-09-25 <NA>     Rutgers      W (20…       9      16    56.3     163
##  5     5 2021-10-02 @        Wisconsin    W (38…      18      30    60       253
##  6     6 2021-10-09 @        Nebraska     W (32…      22      39    56.4     255
##  7     7 2021-10-23 <NA>     Northwestern W (33…      23      32    71.9     163
##  8     8 2021-10-30 @        Michigan St… L (33…      31      48    64.6     406
##  9     9 2021-11-06 <NA>     Indiana      W (29…      15      28    53.6     223
## 10    10 2021-11-13 @        Penn State   W (21…      19      29    65.5     217
## # … with 1,645 more rows, 45 more variables: PassingTD <dbl>, RushingAtt <dbl>,
## #   RushingYds <dbl>, RushingAvg <dbl>, RushingTD <dbl>, OffensivePlays <dbl>,
## #   OffensiveYards <dbl>, OffenseAvg <dbl>, FirstDownPass <dbl>,
## #   FirstDownRush <dbl>, FirstDownPen <dbl>, FirstDownTotal <dbl>,
## #   Penalties <dbl>, PenaltyYds <dbl>, Fumbles <dbl>, Interceptions <dbl>,
## #   TotalTurnovers <dbl>, TeamFull <chr>, TeamURL <chr>, Outcome <chr>,
## #   TeamScore <dbl>, OpponentScore <dbl>, DefPassingCmp <dbl>, …
…
