NHL Draft Pick Value - Jetson's Sports Data Blog
…
library(tidyverse)
library(gt)

The draft data is in a .csv that I’ve uploaded to GitHub.

draft_data <- read_csv('https://raw.githubusercontent.com/jetsonku/jour479x_fall_2022/main/data/nhldraft.csv')

Exploration

Let’s take a look. I want to count the <NA> in some of the key columns I want to use. When I was first looking through the spreadsheet I saw some missing values.

draft_data

## # A tibble: 12,250 × 23
##       id  year overall_pick team    player natio…¹ posit…²   age to_year amate…³
##    <dbl> <dbl>        <dbl> <chr>   <chr>  <chr>   <chr>   <dbl>   <dbl> <chr>  
##  1     1  2022            1 Montre… Juraj… SK      LW         18      NA TPS (F…
##  2     2  2022            2 New Je… Simon… SK      D          18      NA HK Nit…
##  3     3  2022            3 Arizon… Logan… US      C          18      NA USA U-…
##  4     4  2022            4 Seattl… Shane… CA      C          18      NA Kingst…
##  5     5  2022            5 Philad… Cutte… SE      LW         18      NA USA U-…
##  6     6  2022            6 Columb… David… CZ      D          18      NA HC Plz…
##  7     7  2022            7 Chicag… Kevin… CA      D          18      NA Seattl…
##  8     8  2022            8 Detroi… Marco… AT      C          18      NA Rogle …
##  9     9  2022            9 Buffal… Matth… CA      C          18      NA Winnip…
## 10    10  2022           10 Anahei… Pavel… RU      D          18      NA Sagina…
## # … with 12,240 more rows, 13 more variables: games_played <dbl>, goals <dbl>,
## #   assists <dbl>, points <dbl>, plus_minus <dbl>, penalties_minutes <dbl>,
## #   goalie_games_played <dbl>, goalie_wins <dbl>, goalie_losses <dbl>,
## #   goalie_ties_overtime <dbl>, save_percentage <dbl>,
## #   goals_against_average <dbl>, point_shares <dbl>, and abbreviated variable
## #   names ¹​nationality, ²​position, ³​amateur_team

data_summary <- draft_data %>% group_by(year) %>% 
  summarise(
    count=n(),
    na_overall = sum(is.na(overall_pick)), 
    na_nationality = sum(is.na(nationality)), 
    na_amateur = sum(is.na(amateur_team)),
    na_age = sum(is.na(age)),
    na_position = sum(is.na(position)),
    )
data_summary

## # A tibble: 60 × 7
##     year count na_overall na_nationality na_amateur na_age na_position
##    <dbl> <int>      <int>          <int>      <int>  <int>       <int>
##  1  1963    21          0              0          0     16           3
##  2  1964    24          0              0          0     15           4
##  3  1965    11          0              0          0      9           4
##  4  1966    24          0              0          0     10           0
##  5  1967    18          0              0          0     15           0
##  6  1968    24          0              0          0     14           0
##  7  1969    84          0              0          0     33           0
##  8  1970   115          0              0          0     52           1
##  9  1971   117          0              0          0     66           0
## 10  1972   152          0              0          0     84           0
## # … with 50 more rows
…
I went ahead and grouped our selection data by some of these pairings: (league-team, nationality-team), to see what some of the biggest pipelines are.

draft_data <- separate(data = draft_data, col = amateur_team, into = c('amateur_team', 'league'), sep = "\\(")
draft_data <- draft_data %>% 
  mutate(league = str_replace(league, "\\)", ""))
picks_by_amateur_team <- draft_data %>% group_by(team, amateur_team) %>% summarise(count=n()) %>% arrange(desc(count))
picks_by_amateur_team

## # A tibble: 7,076 × 3
## # Groups:   team [44]
##    team                amateur_team                 count
##    <chr>               <chr>                        <int>
##  1 Toronto Maple Leafs "Toronto Marlboros "            19
##  2 Boston Bruins       "Peterborough Petes "           17
##  3 Pittsburgh Penguins "Oshawa Generals "              17
##  4 Washington Capitals "London Knights "               16
##  5 New Jersey Devils   "USA U-18 Development Team "    15
##  6 Anaheim Ducks       "USA U-18 Development Team "    14
##  7 Buffalo Sabres      "Peterborough Petes "           14
##  8 Chicago Blackhawks  "USA U-18 Development Team "    14
##  9 Montreal Canadiens  "Ottawa 67's "                  14
## 10 Carolina Hurricanes "Plymouth Whalers "             13
## # … with 7,066 more rows

picks_by_league <- draft_data %>% group_by(team, league) %>% summarise(count=n()) %>% arrange(desc(count))
picks_by_league

## # A tibble: 1,885 × 3
## # Groups:   team [44]
##    team                league count
##    <chr>               <chr>  <int>
##  1 Montreal Canadiens  QMJHL    131
##  2 Toronto Maple Leafs OHL       99
##  3 Los Angeles Kings   OHL       97
##  4 Buffalo Sabres      OHL       91
##  5 Calgary Flames      WHL       91
##  6 Buffalo Sabres      WHL       85
##  7 Vancouver Canucks   WHL       85
##  8 Chicago Blackhawks  OHL       84
##  9 New York Islanders  WHL       83
## 10 Washington Capitals WHL       83
## # … with 1,875 more rows

picks_by_league %>% filter(grepl("Sweden", league, fixed = TRUE)) %>% group_by(team) %>% summarise(setotal = sum(count)) %>% arrange(desc(setotal))

## # A tibble: 40 × 2
##    team                setotal
##    <chr>                 <int>
##  1 Detroit Red Wings        76
##  2 New York Rangers         42
##  3 Calgary Flames           37
##  4 Vancouver Canucks        35
##  5 New York Islanders       34
##  6 Philadelphia Flyers      33
##  7 St. Louis Blues          33
##  8 Dallas Stars             32
##  9 Los Angeles Kings        30
## 10 Boston Bruins            29
## # … with 30 more rows

picks_by_league %>% filter(grepl("Russia", league, fixed = TRUE)) %>% group_by(team) %>% summarise(rutotal = sum(count)) %>% arrange(desc(rutotal))

## # A tibble: 35 × 2
##    team                rutotal
##    <chr>                 <int>
##  1 Tampa Bay Lightning      39
##  2 New Jersey Devils        26
##  3 Chicago Blackhawks       25
##  4 New York Rangers         24
##  5 Toronto Maple Leafs      24
##  6 Washington Capitals      22
##  7 Dallas Stars             20
##  8 Detroit Red Wings        20
##  9 Philadelphia Flyers      20
## 10 St. Louis Blues          20
## # … with 25 more rows

picks_by_league %>% filter(grepl("Finland", league, fixed = TRUE)) %>% group_by(team) %>% summarise(fitotal = sum(count)) %>% arrange(desc(fitotal))

## # A tibble: 38 × 2
##    team                fitotal
##    <chr>                 <int>
##  1 Los Angeles Kings        23
##  2 Edmonton Oilers          22
##  3 Nashville Predators      21
##  4 New York Islanders       21
##  5 New York Rangers         21
##  6 Montreal Canadiens       20
##  7 Chicago Blackhawks       19
##  8 Dallas Stars             19
##  9 Winnipeg Jets            19
## 10 Calgary Flames           18
## # … with 28 more rows
…
