What Defines a Kevin Willard Team? - Jetson's Sports Data Blog
…
    32 min read

    What Defines a Kevin Willard Team?

    2022-11-15

The Kevin Willard Era has started in College Park. After a long awaited changing of the guard for the Terrapins, what can fans expect from the new head coach during his time at Xfinity? Today we are looking at game logs from NCAA Basketball games since 2011-12.

library(tidyverse)
library(ggbeeswarm)
library(ggrepel)
logs <- read_csv("https://dwillis.github.io/sports-data-files/logs1222.csv")
logs

## # A tibble: 122,275 × 48
##    Season   Game Date       TeamF…¹ Oppon…² HomeA…³ W_L   TeamS…⁴ Oppon…⁵ TeamFG
##    <chr>   <dbl> <date>     <chr>   <chr>   <chr>   <chr>   <dbl>   <dbl>  <dbl>
##  1 2011-2…     1 2011-11-11 Air Fo… Army    <NA>    W          87      71     29
##  2 2011-2…     2 2011-11-12 Air Fo… VMI     N       W          75      65     28
##  3 2011-2…     3 2011-11-18 Air Fo… Wester… <NA>    W          65      37     24
##  4 2011-2…     4 2011-11-23 Air Fo… Colora… <NA>    L (1…      73      76     25
##  5 2011-2…     5 2011-12-03 Air Fo… Drake   @       L          60      62     16
##  6 2011-2…     6 2011-12-07 Air Fo… Wright… <NA>    W          55      34     19
##  7 2011-2…     7 2011-12-10 Air Fo… Arkans… <NA>    W          63      51     24
##  8 2011-2…     8 2011-12-17 Air Fo… Maryla… <NA>    W          64      60     22
##  9 2011-2…     9 2011-12-22 Air Fo… Gonzaga @       L          60      70     22
## 10 2011-2…    10 2011-12-29 Air Fo… Wagner  N       L          61      72     18
## # … with 122,265 more rows, 38 more variables: TeamFGA <dbl>, TeamFGPCT <dbl>,
## #   Team3P <dbl>, Team3PA <dbl>, Team3PPCT <dbl>, TeamFT <dbl>, TeamFTA <dbl>,
## #   TeamFTPCT <dbl>, TeamOffRebounds <dbl>, TeamTotalRebounds <dbl>,
## #   TeamAssists <dbl>, TeamSteals <dbl>, TeamBlocks <dbl>, TeamTurnovers <dbl>,
## #   TeamPersonalFouls <dbl>, OpponentFG <dbl>, OpponentFGA <dbl>,
## #   OpponentFGPCT <dbl>, Opponent3P <dbl>, Opponent3PA <dbl>,
## #   Opponent3PPCT <dbl>, OpponentFT <dbl>, OpponentFTA <dbl>, …
…
